%YAML 1.1
%TAG !u! tag:unity3d.com,2011:
--- !u!1045 &1
EditorBuildSettings:
  m_ObjectHideFlags: 0
  serializedVersion: 2
  m_Scenes:
  - enabled: 0
    path: 
    guid: 00000000000000000000000000000000
  - enabled: 1
    path: Assets/Scenes/StartMenu.unity
    guid: d637bcf1900e01748953d3d174c8fc45
  - enabled: 1
    path: Assets/Scenes/RailShooter.unity
    guid: cf929030a8ed061489c118b24d34b48a
  - enabled: 1
    path: Assets/Scenes/RailShooter_Level1.unity
    guid: d0722bdfc9f687e41922dde7c0126191
  m_configObjects: {}
