# Blender v2.79 (sub 0) OBJ File: 'starFoxAstroid.blend'
# www.blender.org
mtllib starFoxAstroid.mtl
o Icosphere
v 0.000000 -1.000000 0.000000
v 0.930950 -0.447220 0.525725
v -0.276388 -0.447220 0.850649
v -0.894426 -0.447216 0.000000
v -0.276388 -0.447220 -0.850649
v 0.723607 -0.447220 -0.525725
v 0.276388 0.447220 0.850649
v -0.803779 0.447220 0.674674
v -0.723607 0.447220 -0.525725
v 0.276388 0.447220 -0.850649
v 0.894426 0.447216 0.000000
v 0.000000 1.064353 0.000000
v -0.162456 -0.850654 0.499995
v 0.425323 -1.116131 0.309011
v 0.262869 -0.525738 0.809012
v 0.850648 -0.525736 0.000000
v 0.425323 -1.014785 -0.309011
v -0.525730 -0.850652 0.000000
v -0.688189 -0.525736 0.499997
v -0.162456 -0.850654 -0.499995
v -0.688189 -0.525736 -0.499997
v 0.262869 -0.525738 -0.809012
v 1.158400 0.000000 0.309013
v 0.951058 0.000000 -0.309013
v 0.000000 0.000000 1.000000
v 0.795128 0.000000 0.809017
v -0.951058 0.000000 0.309013
v -0.667958 0.000000 0.957965
v -0.587786 0.000000 -0.809017
v -0.951058 0.000000 -0.309013
v 0.587786 0.000000 -0.809017
v 0.000000 0.000000 -1.000000
v 0.688189 0.525736 0.499997
v -0.262869 0.525738 0.809012
v -0.850648 0.525736 0.000000
v -0.262869 0.525738 -1.145045
v 0.797928 0.525736 -0.499997
v 0.162456 0.972189 0.499995
v 0.670836 0.915004 0.000000
v -0.425323 0.850654 0.309011
v -0.425323 0.850654 -0.309011
v 0.162456 1.133313 -0.876088
vt 0.594470 0.408221
vt 0.490667 0.444841
vt 0.551812 0.304700
vt 0.382270 0.402380
vt 0.402479 0.232289
vt 0.490459 0.399462
vt 0.663863 0.349049
vt 0.673717 0.440074
vt 0.598971 0.493138
vt 0.391748 0.478602
vt 0.194972 0.335667
vt 0.285284 0.346055
vt 0.222933 0.413773
vt 0.743455 0.311448
vt 0.672126 0.228618
vt 0.815173 0.228618
vt 0.742236 0.464706
vt 0.743174 0.392925
vt 0.812745 0.442532
vt 0.645594 0.588036
vt 0.697163 0.521928
vt 0.734008 0.607589
vt 0.321754 0.444515
vt 0.135630 0.402488
vt 0.823044 0.349534
vt 0.784865 0.526537
vt 0.652346 0.697874
vt 0.246390 0.481277
vt 0.305202 0.522503
vt 0.222345 0.557430
vt 0.100637 0.466831
vt 0.175588 0.481749
vt 0.130666 0.562315
vt 0.892210 0.408182
vt 0.936289 0.305255
vt 1.001484 0.433731
vt 0.826146 0.603829
vt 0.867389 0.520050
vt 0.963981 0.621647
vt 0.376780 0.568843
vt 0.419487 0.669551
vt 0.304488 0.614974
vt 0.247490 0.809767
vt 0.195234 0.632773
vt 0.783468 0.724691
vt 0.086157 0.682100
vt 0.001691 0.554163
vt 0.490459 0.548189
vt 0.004680 0.400511
vt 0.094315 0.279701
vt 0.538567 0.612754
vt 0.237400 0.228618
vn -0.3640 -0.9182 0.1560
vn 0.8025 -0.5957 -0.0336
vn -0.2680 -0.9435 0.1947
vn -0.2680 -0.9435 -0.1947
vn -0.1946 -0.9554 -0.2221
vn 0.8770 -0.4764 -0.0628
vn 0.0247 -0.3304 0.9435
vn -0.8897 -0.3304 0.3151
vn -0.5746 -0.3304 -0.7488
vn 0.5346 -0.3304 -0.7779
vn 0.8026 -0.1256 0.5831
vn -0.0602 -0.2825 0.9574
vn -0.9921 -0.1256 0.0000
vn -0.3066 -0.1256 -0.9435
vn 0.8026 -0.1256 -0.5831
vn 0.4738 0.5579 0.6813
vn -0.2568 0.7701 0.5839
vn -0.7002 0.6617 -0.2680
vn 0.4840 0.0480 -0.8738
vn 0.8972 0.4288 -0.1058
vn 0.2158 0.9695 0.1163
vn 0.7449 0.6048 -0.2815
vn 0.5506 0.0606 -0.8325
vn -0.4423 0.8968 -0.0114
vn -0.6714 0.6374 -0.3782
vn -0.6315 0.6734 -0.3844
vn -0.4490 0.8936 0.0000
vn -0.6071 0.7947 0.0000
vn -0.6605 0.7392 0.1319
vn -0.2759 0.9253 0.2602
vn -0.3425 0.7330 0.5876
vn 0.0172 0.5579 0.8297
vn 0.2160 0.9703 0.1087
vn 0.5621 0.6619 0.4958
vn 0.8631 0.4126 0.2912
vn 0.9625 0.2257 -0.1503
vn 0.8088 0.0221 -0.5876
vn 0.5070 0.2771 -0.8162
vn 0.4789 -0.0028 -0.8779
vn -0.2852 -0.3848 -0.8778
vn -0.8036 0.1246 -0.5820
vn -0.9050 0.3304 -0.2680
vn -0.9822 0.1876 0.0000
vn -0.9660 0.2404 0.0951
vn -0.2763 0.4530 0.8476
vn -0.0596 0.3144 0.9474
vn -0.0247 0.3304 0.9435
vn 0.4980 0.5125 0.6996
vn 0.7207 0.4544 0.5236
vn 0.7655 0.6044 0.2208
vn 0.3066 0.1256 -0.9435
vn 0.3035 -0.1876 -0.9342
vn 0.0247 -0.3304 -0.9435
vn -0.8026 0.1256 -0.5831
vn -0.7947 -0.1876 -0.5773
vn -0.8897 -0.3304 -0.3151
vn -0.9163 -0.0251 0.3997
vn -0.8747 -0.2987 0.3816
vn -0.4666 -0.5707 0.6757
vn 0.2298 0.1775 0.9569
vn 0.2273 -0.2301 0.9463
vn 0.3971 -0.4020 0.8250
vn 0.8977 0.3218 -0.3012
vn 0.8897 -0.3454 -0.2985
vn 0.9050 -0.3304 -0.2680
vn 0.5085 -0.5272 -0.6808
vn 0.0306 -0.7096 -0.7040
vn -0.0385 -0.6617 -0.7488
vn -0.4089 -0.6617 -0.6284
vn -0.4911 -0.7947 -0.3568
vn -0.7240 -0.6617 -0.1947
vn -0.7240 -0.6617 0.1947
vn -0.4911 -0.7947 0.3568
vn -0.4089 -0.6617 0.6284
vn 0.8046 -0.5272 -0.2732
vn 0.7814 -0.6158 -0.1010
vn -0.1502 -0.9756 -0.1600
vn -0.0385 -0.6617 0.7488
vn -0.0497 -0.6534 0.7554
vn 0.3826 -0.5336 0.7543
usemtl None
s off
f 1/1/1 14/2/1 13/3/1
f 2/4/2 14/5/2 16/6/2
f 1/1/3 13/3/3 18/7/3
f 1/1/4 18/7/4 20/8/4
f 1/1/5 20/8/5 17/9/5
f 2/4/6 16/6/6 23/10/6
f 3/11/7 15/12/7 25/13/7
f 4/14/8 19/15/8 27/16/8
f 5/17/9 21/18/9 29/19/9
f 6/20/10 22/21/10 31/22/10
f 2/4/11 23/10/11 26/23/11
f 3/11/12 25/13/12 28/24/12
f 4/14/13 27/16/13 30/25/13
f 5/17/14 29/19/14 32/26/14
f 6/20/15 31/22/15 24/27/15
f 7/28/16 33/29/16 38/30/16
f 8/31/17 34/32/17 40/33/17
f 9/34/18 35/35/18 41/36/18
f 10/37/19 36/38/19 42/39/19
f 11/40/20 37/41/20 39/42/20
f 39/42/21 42/43/21 12/44/21
f 39/42/22 37/41/22 42/43/22
f 37/45/23 10/37/23 42/39/23
f 42/43/24 41/46/24 12/44/24
f 42/39/25 36/38/25 41/36/25
f 36/38/26 9/34/26 41/36/26
f 41/46/27 40/33/27 12/44/27
f 41/46/28 35/47/28 40/33/28
f 35/47/29 8/31/29 40/33/29
f 40/33/30 38/30/30 12/44/30
f 40/33/31 34/32/31 38/30/31
f 34/32/32 7/28/32 38/30/32
f 38/30/33 39/42/33 12/44/33
f 38/30/34 33/29/34 39/42/34
f 33/29/35 11/40/35 39/42/35
f 24/48/36 37/41/36 11/40/36
f 24/27/37 31/22/37 37/45/37
f 31/22/38 10/37/38 37/45/38
f 32/26/39 36/38/39 10/37/39
f 32/26/40 29/19/40 36/38/40
f 29/19/41 9/34/41 36/38/41
f 30/25/42 35/35/42 9/34/42
f 30/25/43 27/16/43 35/35/43
f 27/49/44 8/31/44 35/47/44
f 28/24/45 34/32/45 8/31/45
f 28/24/46 25/13/46 34/32/46
f 25/13/47 7/28/47 34/32/47
f 26/23/48 33/29/48 7/28/48
f 26/23/49 23/10/49 33/29/49
f 23/10/50 11/40/50 33/29/50
f 31/22/51 32/26/51 10/37/51
f 31/22/52 22/21/52 32/26/52
f 22/21/53 5/17/53 32/26/53
f 29/19/54 30/25/54 9/34/54
f 29/19/55 21/18/55 30/25/55
f 21/18/56 4/14/56 30/25/56
f 27/49/57 28/24/57 8/31/57
f 27/49/58 19/50/58 28/24/58
f 19/50/59 3/11/59 28/24/59
f 25/13/60 26/23/60 7/28/60
f 25/13/61 15/12/61 26/23/61
f 15/12/62 2/4/62 26/23/62
f 23/10/63 24/48/63 11/40/63
f 23/10/64 16/6/64 24/48/64
f 16/51/65 6/20/65 24/27/65
f 17/9/66 22/21/66 6/20/66
f 17/9/67 20/8/67 22/21/67
f 20/8/68 5/17/68 22/21/68
f 20/8/69 21/18/69 5/17/69
f 20/8/70 18/7/70 21/18/70
f 18/7/71 4/14/71 21/18/71
f 18/7/72 19/15/72 4/14/72
f 18/7/73 13/3/73 19/15/73
f 13/52/74 3/11/74 19/50/74
f 16/51/75 17/9/75 6/20/75
f 16/51/76 14/2/76 17/9/76
f 14/2/77 1/1/77 17/9/77
f 13/52/78 15/12/78 3/11/78
f 13/52/79 14/5/79 15/12/79
f 14/5/80 2/4/80 15/12/80
